<?xml version="1.0" encoding="utf-8"?>
<!-- Generator: Adobe Illustrator 16.0.0, SVG Export Plug-In . SVG Version: 6.00 Build 0)  -->
<!DOCTYPE svg PUBLIC "-//W3C//DTD SVG 1.1//EN" "http://www.w3.org/Graphics/SVG/1.1/DTD/svg11.dtd">
<svg version="1.1" id="Layer_1" xmlns="http://www.w3.org/2000/svg" xmlns:xlink="http://www.w3.org/1999/xlink" x="0px" y="0px"
	 width="294px" height="180px" viewBox="0 0 294 180" enable-background="new 0 0 294 180" xml:space="preserve">
<title>page_title</title>
<desc>Created with Sketch.</desc>
<g enable-background="new    ">
	<path fill="#F7F7F7" d="M38.667,80.47l-8.929,5.4c-1.8-2.521-4.464-4.032-7.849-4.032c-4.825,0-8.137,3.96-8.137,9.792
		c0,5.978,3.312,9.865,8.137,9.865c3.528,0,6.265-1.44,7.92-4.394l9.073,5.33c-3.168,5.688-9.433,9-17.641,9
		c-11.953,0-20.018-7.921-20.018-19.729c0-11.953,8.137-19.945,20.162-19.945C29.091,71.757,35.283,74.925,38.667,80.47z"/>
	<path fill="#F7F7F7" d="M83.02,91.559c0,11.953-8.497,19.873-21.169,19.873c-12.745,0-21.242-7.92-21.242-19.873
		c0-11.953,8.497-19.802,21.242-19.802C74.523,71.757,83.02,79.605,83.02,91.559z M53.137,91.702c0,6.049,3.528,10.081,8.713,10.081
		c5.112,0,8.641-4.032,8.641-10.081c0-5.977-3.528-10.081-8.641-10.081C56.666,81.621,53.137,85.726,53.137,91.702z"/>
	<path fill="#F7F7F7" d="M129.315,86.518V111H116.93V89.975c0-4.537-2.665-7.345-6.841-7.345c-4.537,0-7.417,3.24-7.921,7.849V111
		H89.711V72.188h12.457v6.337c2.736-4.536,7.201-6.841,12.961-6.913C123.699,71.612,129.315,77.445,129.315,86.518z"/>
	<path fill="#F7F7F7" d="M163.225,108.912c-2.808,1.656-6.623,2.664-10.367,2.664c-7.489,0-12.89-4.248-12.89-12.312V82.126h-5.4
		v-8.137h5.4V63.188h12.386v10.729h10.152v8.209h-10.152v15.192c0,3.023,1.295,4.32,3.601,4.248c1.296,0,2.951-0.504,4.823-1.295
		L163.225,108.912z"/>
	<path fill="#F7F7F7" d="M203.834,85.654V111h-12.169v-4.465c-2.521,3.312-6.624,5.041-11.882,5.041
		c-8.28,0-13.32-5.041-13.32-12.169c0-7.345,5.256-11.665,14.905-11.737h10.225v-0.576c0-3.816-2.521-6.12-7.561-6.12
		c-3.24,0-7.489,1.152-11.593,3.24l-3.528-8.209c6.048-2.809,11.521-4.393,18.001-4.393
		C197.568,71.612,203.762,76.869,203.834,85.654z M191.593,97.823v-3.457h-7.849c-3.744,0-5.616,1.297-5.616,4.177
		c0,2.809,2.017,4.607,5.472,4.607C187.488,103.15,190.801,100.991,191.593,97.823z"/>
	<path fill="#F7F7F7" d="M246.889,80.47l-8.928,5.4c-1.801-2.521-4.465-4.032-7.85-4.032c-4.824,0-8.137,3.96-8.137,9.792
		c0,5.978,3.312,9.865,8.137,9.865c3.529,0,6.266-1.44,7.921-4.394l9.073,5.33c-3.168,5.688-9.435,9-17.643,9
		c-11.953,0-20.02-7.921-20.02-19.729c0-11.953,8.138-19.945,20.162-19.945C237.312,71.757,243.505,74.925,246.889,80.47z"/>
	<path fill="#F7F7F7" d="M278.208,108.912c-2.808,1.656-6.624,2.664-10.368,2.664c-7.488,0-12.89-4.248-12.89-12.312V82.126h-5.4
		v-8.137h5.4V63.188h12.386v10.729h10.152v8.209h-10.152v15.192c0,3.023,1.295,4.32,3.6,4.248c1.297,0,2.953-0.504,4.824-1.295
		L278.208,108.912z"/>
	<path fill="#F7F7F7" d="M294.264,105.527c0,3.601-2.521,6.049-6.049,6.049c-3.529,0-5.977-2.448-5.977-6.049
		c0-3.528,2.447-5.978,5.977-5.978C291.742,99.551,294.264,101.999,294.264,105.527z"/>
</g>
<rect id="Rectangle-4" x="-37.399" y="86.698" transform="matrix(0.4695 -0.8829 0.8829 0.4695 -45.9891 102.8537)" fill="#C3FF00" width="199.994" height="6"/>
</svg>
